Text Analysis With R - Intermediate techniques in text analysis with R
…
Topic per document

Information about the distribution of topics in each documents is in the matrix gamma.

# A tibble: 45 × 3
   document     topic gamma
   <chr>        <int> <dbl>
 1 BNP              1 0.110
 2 Coalition        1 0.206
 3 Conservative     1 0.282
 4 Greens           1 0.149
 5 Labour           1 0.257
 6 LibDem           1 0.203
 7 PC               1 0.176
 8 SNP              1 0.205
 9 UKIP             1 0.145
10 BNP              2 0.164
# … with 35 more rows
…
